%YAML 1.1
%TAG !u! tag:unity3d.com,2011:
--- !u!1045 &1
EditorBuildSettings:
  m_ObjectHideFlags: 0
  serializedVersion: 2
  m_Scenes:
  - enabled: 1
    path: Assets/Scenes/Menus/Menus.unity
    guid: 060da2397188ac34b824520556b255a4
  - enabled: 1
    path: Assets/Scenes/Member Scenes/Fabio 2.0.unity
    guid: 217cd4809569b494a8fcba3ac5867378
  - enabled: 1
    path: Assets/Scenes/Menus/MenuFinalAmerican.unity
    guid: 311a2366ee84d18429967cb8380f612b
  - enabled: 1
    path: Assets/Scenes/Menus/MenuFinalAsian.unity
    guid: cc9ac70f913880740ab11cb5b04aed76
  m_configObjects: {}
