%YAML 1.1
%TAG !u! tag:unity3d.com,2011:
--- !u!1 &3783125821008773285
GameObject:
  m_ObjectHideFlags: 0
  m_CorrespondingSourceObject: {fileID: 0}
  m_PrefabInstance: {fileID: 0}
  m_PrefabAsset: {fileID: 0}
  serializedVersion: 6
  m_Component:
  - component: {fileID: 3783125821008773287}
  - component: {fileID: 3783125821008773286}
  m_Layer: 0
  m_Name: MANAGER
  m_TagString: gameManager
  m_Icon: {fileID: 0}
  m_NavMeshLayer: 0
  m_StaticEditorFlags: 0
  m_IsActive: 1
--- !u!4 &3783125821008773287
Transform:
  m_ObjectHideFlags: 0
  m_CorrespondingSourceObject: {fileID: 0}
  m_PrefabInstance: {fileID: 0}
  m_PrefabAsset: {fileID: 0}
  m_GameObject: {fileID: 3783125821008773285}
  m_LocalRotation: {x: 0, y: 0, z: 0, w: 1}
  m_LocalPosition: {x: 0, y: 0, z: 0}
  m_LocalScale: {x: 1, y: 1, z: 1}
  m_Children: []
  m_Father: {fileID: 0}
  m_RootOrder: 0
  m_LocalEulerAnglesHint: {x: 0, y: 0, z: 0}
--- !u!114 &3783125821008773286
MonoBehaviour:
  m_ObjectHideFlags: 0
  m_CorrespondingSourceObject: {fileID: 0}
  m_PrefabInstance: {fileID: 0}
  m_PrefabAsset: {fileID: 0}
  m_GameObject: {fileID: 3783125821008773285}
  m_Enabled: 1
  m_EditorHideFlags: 0
  m_Script: {fileID: 11500000, guid: e35dbb4930d17ca4db3d6eff16a32bce, type: 3}
  m_Name: 
  m_EditorClassIdentifier: 
  list: {fileID: 0}
  RR: {fileID: 0}
  neeedle: {fileID: 0}
  startPosition: {fileID: 0}
  kph: {fileID: 0}
  currentPosition: {fileID: 0}
  gearNum: {fileID: 0}
  nitrusSlider: {fileID: 0}
  timeLeft: 4
  timeLeftText: {fileID: 0}
  uiList: {fileID: 0}
  uiListFolder: {fileID: 0}
  backImage: {fileID: 0}
